%YAML 1.1
%TAG !u! tag:unity3d.com,2011:
--- !u!114 &11400000
MonoBehaviour:
  m_ObjectHideFlags: 0
  m_CorrespondingSourceObject: {fileID: 0}
  m_PrefabInstance: {fileID: 0}
  m_PrefabAsset: {fileID: 0}
  m_GameObject: {fileID: 0}
  m_Enabled: 1
  m_EditorHideFlags: 0
  m_Script: {fileID: 11500000, guid: 5f9c6590fb2db424eb9a63db809ba42d, type: 3}
  m_Name: BigMagazine
  m_EditorClassIdentifier: 
  availableForWeaponsType: 0100000002000000
  availableForWeaponsID: 02000000090000000c000000
  addonID: 1
  name: BigMagazine
  missMod: 0
  accuracyMod: 0
  damageMod: 0
  ammunitionMod: 10
  reloadSpeedMod: 0
  newColor: {r: 0, g: 0, b: 0, a: 0}
  newSkin: {fileID: 0}
  addonType: 1
