%YAML 1.1
%TAG !u! tag:unity3d.com,2011:
--- !u!114 &11400000
MonoBehaviour:
  m_ObjectHideFlags: 0
  m_CorrespondingSourceObject: {fileID: 0}
  m_PrefabInstance: {fileID: 0}
  m_PrefabAsset: {fileID: 0}
  m_GameObject: {fileID: 0}
  m_Enabled: 1
  m_EditorHideFlags: 0
  m_Script: {fileID: 11500000, guid: 4510603534f2aa446b271d200bbd2fe0, type: 3}
  m_Name: Blaster
  m_EditorClassIdentifier: 
  addons: 
  name: Blaster
  missMod: 0.1
  accuracy: 100
  reloadSpeed: 2
  damage: 20
  ammunition: 20
  weaponID: 2
